{
    "about_page": {
        "about_us": "General Information about your organization",
        "description": [
            "This section is filled with the description of your organization and some information how to get in touch with you. The vision of your organization also works well. "
        ],
        "slogan": "Your Organization Slogan"
    },
    "contact": {
        "address": "This section will be filled with your organization address",
        "email": "This section is for email contact where user can get in touch with you",
        "fb_url": "https://www.facebook.com/aiscoindonesia",
        "google_map_url": "This section is for the url of  your address google maps",
        "instagram_url": "https://www.instagram.com/aisco_id/",
        "phone": "This section is for your phone numbers"
    },
    "essential_assets": {
        "bannerUrl": "https://wallpapercave.com/wp/wp3594884.jpg",
        "logoUrl": "https://cdn.worldvectorlogo.com/logos/react-native-firebase-1.svg"
    },
    "styles": "green"
}